{"categoryHeader":{"catLink":null,"skuOnlyFolder":"false","ext_link":"C6196","creativeJsPath":"/creative-technology/js/globaltout.js","creativeCssPath":"/creative-technology/css/globaltout.css","name":"shoes_sneakers","dimId":1000001074,"hasSubFolders":"true","seo_h1":"Men's Shoes & Boots","ATR_extended_size_folder":"false","displayCategorySeo":true,"catStyle":"b","displayRectangularImageCrop":false,"catLocation":"lb","priority":"20","catDescription":null,"label":"shoes & sneakers","invalidSubcategory":false,"seoHTMLContent":"","flash_link_js":"E3785","catName":"SHOES & SNEAKERS","folderId":"2534374302023774","gender":"Men","persistCreativeObjects":false,"mixedProducts":"false"},"sortByOrderType":[{"label":"Category","value":"0"},{"label":"Price: Low to High","value":"1"},{"label":"Price: High to Low","value":"2"},{"label":"New Arrival","value":"3"},{"label":"Top Rated","value":"4"}],"productList":[{"header":"boots","products":[{"extended-size-group-id":"208530","extendedSize":"Regular","show-all-colors":false,"apiLink":"/data/v1/US/products/full/20853/c/mens_category/shoes_sneakers/boots","colors":[{"show-on-sale":false,"colorName":"DARK BURGUNDY","colorCode":"EC0325","hasOnfig":false,"show-on-full":true,"skuShotType":"_d1,_d2,_d3,_d5,_d6"}],"productId":"845524441803567","productDescription":"Alden® for J.Crew cap-toe cordovan boots","brand":"JCrew","videoOnArray":true,"priority":21,"listPrice":{"amount":801.00,"formatted":"$801.00"},"url":"/p/mens_category/shoes_sneakers/boots/alden-for-jcrew-captoe-cordovan-boots/20853","productCode":"20853","tiles":["EC0325"],"folderId":null,"badge":{"label":"only a few left","type":"INV","priority":6},"defaultColorCode":"EC0325","enabledBadges":"TR,TS,NS,NC,ZZ,LS","shotType":"_d1,_d2,_d3,_d5,_d6"},{"extended-size-group-id":"M45170","extendedSize":"Regular","show-all-colors":false,"apiLink":"/data/v1/US/products/full/M4517/c/mens_category/shoes_sneakers/boots","colors":[{"show-on-sale":false,"colorName":"BROWN","colorCode":"BR0984","hasOnfig":false,"show-on-full":true,"skuShotType":"_d1,_d2,_d3,_d4"},{"show-on-sale":false,"colorName":"WHISKEY","colorCode":"EC9914","hasOnfig":false,"show-on-full":true,"skuShotType":"_d1,_d2,_d3,_d4"}],"productId":"845524441912006","productDescription":"Quoddy® RL camp boots","brand":"JCrew","videoOnArray":true,"priority":999999,"listPrice":{"amount":350.00,"formatted":"$350.00"},"url":"/p/mens_category/shoes_sneakers/boots/quoddy-rl-camp-boots/M4517","productCode":"M4517","tiles":["BR0984"],"folderId":null,"badge":{"label":"only a few left","type":"INV","priority":6},"defaultColorCode":"BR0984","enabledBadges":"TR,TS,NS,NC,ZZ,LS","shotType":"_d1,_d2,_d3,_d4"},{"extended-size-group-id":"M45160","extendedSize":"Regular","show-all-colors":false,"apiLink":"/data/v1/US/products/full/M4516/c/mens_category/shoes_sneakers/boots","colors":[{"show-on-sale":false,"colorName":"WHISKEY","colorCode":"EC9914","hasOnfig":false,"show-on-full":true,"skuShotType":"_d1,_d2,_d3"},{"show-on-sale":false,"colorName":"BROWN","colorCode":"BR0984","hasOnfig":false,"show-on-full":true,"skuShotType":"_d1,_d2,_d3"}],"productId":"845524441911874","productDescription":"Quoddy® RL telos chukkas","brand":"JCrew","videoOnArray":true,"priority":999999,"listPrice":{"amount":300.00,"formatted":"$300.00"},"url":"/p/mens_category/shoes_sneakers/boots/quoddy-rl-telos-chukkas/M4516","productCode":"M4516","tiles":["EC9914"],"folderId":null,"badge":{"label":"only a few left","type":"INV","priority":6},"defaultColorCode":"BR0984","enabledBadges":"TR,TS,NS,NC,ZZ,LS","shotType":"_d1,_d2,_d3"}],"folderId":"2534374302023775"},{"header":"Shoe Care","products":[{"extended-size-group-id":"F63450","extendedSize":"Regular","show-all-colors":false,"apiLink":"/data/v1/US/products/full/F6345/c/mens_category/shoes_sneakers/shoecare","colors":[{"show-on-sale":false,"colorName":"REPEL","colorCode":"EF9708","hasOnfig":false,"show-on-full":true,"skuShotType":null}],"productId":"845524441869805","productDescription":"Jason Markk™ repel sneaker spray","brand":"JCrew","videoOnArray":true,"priority":1,"listPrice":{"amount":17.00,"formatted":"$17.00"},"url":"/p/mens_category/shoes_sneakers/shoecare/jason-markk-repel-sneaker-spray/F6345","productCode":"F6345","tiles":["EF9708"],"folderId":null,"defaultColorCode":"EF9708","enabledBadges":"TR,TS,NS,NC,ZZ,LS","shotType":null},{"extended-size-group-id":"F30950","extendedSize":"Regular","show-all-colors":false,"apiLink":"/data/v1/US/products/full/F3095/c/mens_category/shoes_sneakers/shoecare","colors":[{"show-on-sale":false,"colorName":"SUEDE CLEANING KIT","colorCode":"EF8597","hasOnfig":false,"show-on-full":true,"skuShotType":null}],"productId":"845524441865273","productDescription":"Jason Markk™ suede cleaning kit","brand":"JCrew","videoOnArray":true,"priority":1,"listPrice":{"amount":12.00,"formatted":"$12.00"},"url":"/p/mens_category/shoes_sneakers/shoecare/jason-markk-suede-cleaning-kit/F3095","productCode":"F3095","tiles":["EF8597"],"folderId":null,"defaultColorCode":"EF8597","enabledBadges":"TR,TS,NS,NC,ZZ,LS","shotType":null},{"extended-size-group-id":"F30940","extendedSize":"Regular","badgeType":"TR","show-all-colors":false,"apiLink":"/data/v1/US/products/full/F3094/c/mens_category/shoes_sneakers/shoecare","colors":[{"show-on-sale":false,"colorName":"ESSENTIAL KIT","colorCode":"EF8596","hasOnfig":false,"show-on-full":true,"skuShotType":"_d1"}],"productId":"845524441865209","productDescription":"Jason Markk™ shoe cleaning kit","brand":"JCrew","videoOnArray":true,"priority":1,"listPrice":{"amount":16.00,"formatted":"$16.00"},"url":"/p/mens_category/shoes_sneakers/shoecare/jason-markk-shoe-cleaning-kit/F3094","productCode":"F3094","tiles":["EF8596"],"folderId":null,"badge":{"label":"top rated","type":"TR","priority":5,"iconPath":"TR"},"defaultColorCode":"EF8596","enabledBadges":"TR,TS,NS,NC,ZZ,LS","shotType":"_d1"},{"extended-size-group-id":"F56900","extendedSize":"Regular","show-all-colors":false,"apiLink":"/data/v1/US/products/full/F5690/c/mens_category/shoes_sneakers/shoecare","colors":[{"show-on-sale":false,"colorName":"QUICK WIPES","colorCode":"EF8594","hasOnfig":false,"show-on-full":true,"skuShotType":null}],"productId":"845524441867520","productDescription":"Jason Markk™ quick wipes","brand":"JCrew","videoOnArray":true,"priority":4,"listPrice":{"amount":20.00,"formatted":"$20.00"},"url":"/p/mens_category/shoes_sneakers/shoecare/jason-markk-quick-wipes/F5690","productCode":"F5690","tiles":["EF8594"],"folderId":null,"defaultColorCode":"EF8594","enabledBadges":"TR,TS,NS,NC,ZZ,LS","shotType":null}],"folderId":"2534374302084871"}],"navigation":{"refinements":[{"name":"BrowseNavigation","values":[{"id":1000001075,"count":"40","label":"sneakers","sortOrder":1,"queryName":"sneakers","gender":"men","folder_id":"2534374302023776","seo":"mens_category/shoes_sneakers/sneakers.jsp"},{"id":1000001076,"count":"29","label":"exclusives","sortOrder":2,"queryName":"exclusives","gender":"men","folder_id":"2534374302105160","seo":"mens_category/shoes_sneakers/exclusives.jsp"},{"id":1000001077,"count":"17","label":"loafers & slip ons","sortOrder":3,"queryName":"loafersboatshoes","gender":"men","folder_id":"2534374302052521","seo":"mens_category/shoes_sneakers/loafersboatshoes.jsp"},{"id":1000001078,"count":"6","label":"sandals & flip-flops","sortOrder":4,"queryName":"sandalsflipflops","gender":"men","folder_id":"2534374302023777","seo":"mens_category/shoes_sneakers/sandalsflipflops.jsp"},{"id":1000001079,"count":"16","label":"dress shoes","sortOrder":5,"queryName":"oxfords","gender":"men","folder_id":"2534374302040762","seo":"mens_category/shoes_sneakers/oxfords.jsp"},{"id":1000001080,"count":"15","label":"boots","sortOrder":6,"queryName":"boots","gender":"men","folder_id":"2534374302023775","seo":"mens_category/shoes_sneakers/boots.jsp"},{"id":1000001082,"count":"4","label":"Shoe Care","sortOrder":7777,"queryName":"shoecare","gender":"men","folder_id":"2534374302084871","seo":"mens_category/shoes_sneakers/shoecare.jsp"}],"label":"Category","priority":10,"selectedCount":0},{"name":"JCrewBrand","values":[{"id":2209998703,"count":"6","label":"ADIDAS","sortOrder":"ZZZ","queryName":"brand-adidas"},{"id":2209998719,"count":"16","label":"ALDEN","sortOrder":"ZZZ","queryName":"brand-alden"},{"id":2209998691,"count":"3","label":"BIRKENSTOCK","sortOrder":"ZZZ","queryName":"brand-birkenstock"},{"id":2209998669,"count":"2","label":"BLUNDSTONE","sortOrder":"ZZZ","queryName":"brand-blundstone"},{"id":2209998673,"count":"4","label":"JASON MARKK","sortOrder":"ZZZ","queryName":"brand-jason-markk"},{"id":2209998714,"count":"8","label":"NEW BALANCE","sortOrder":"ZZZ","queryName":"brand-new-balance"},{"id":2209996482,"count":"7","label":"QUODDY","sortOrder":"ZZZ","queryName":"brand-quoddy"},{"id":2209989973,"count":"2","label":"R.M. WILLIAMS","sortOrder":"ZZZ","queryName":"brand-rm-williams"},{"id":2209998679,"count":"1","label":"RED WING","sortOrder":"ZZZ","queryName":"brand-red-wing"},{"id":2209995024,"count":"5","label":"REEBOK","sortOrder":"ZZZ","queryName":"brand-reebok"},{"id":2209998711,"count":"11","label":"SPERRY","sortOrder":"ZZZ","queryName":"brand-sperry"},{"id":2209998707,"count":"4","label":"VANS","sortOrder":"ZZZ","queryName":"brand-vans"},{"id":2209998424,"count":"1","label":"WALLACE &amp; BARNES","sortOrder":"ZZZ","queryName":"brand-wallace-barnes"}],"label":"Brand","priority":20,"selectedCount":0},{"name":"Size Chart","values":[{"group":100,"values":[{"id":11950,"count":"7","label":"7","sortOrder":18,"queryName":"size-100-18-7"},{"id":11952,"count":"7","label":"8","sortOrder":20,"queryName":"size-100-20-8"},{"id":11953,"count":"7","label":"9","sortOrder":21,"queryName":"size-100-21-9"},{"id":11955,"count":"6","label":"10","sortOrder":23,"queryName":"size-100-23-10"},{"id":11956,"count":"6","label":"11","sortOrder":24,"queryName":"size-100-24-11"},{"id":11958,"count":"6","label":"12","sortOrder":26,"queryName":"size-100-26-12"}]},{"group":700,"values":[{"id":12300,"count":"5","label":"41","sortOrder":104,"queryName":"size-700-104-41"},{"id":12301,"count":"5","label":"42","sortOrder":105,"queryName":"size-700-105-42"},{"id":12319,"count":"5","label":"43","sortOrder":106,"queryName":"size-700-106-43"},{"id":12320,"count":"5","label":"44","sortOrder":107,"queryName":"size-700-107-44"},{"id":12321,"count":"5","label":"45","sortOrder":108,"queryName":"size-700-108-45"},{"id":12322,"count":"4","label":"46","sortOrder":109,"queryName":"size-700-109-46"}]},{"group":1800,"values":[{"id":12267,"count":"3","label":"5","sortOrder":312,"queryName":"size-1800-312-5"},{"id":12268,"count":"3","label":"5H","sortOrder":313,"queryName":"size-1800-313-5h"},{"id":12270,"count":"3","label":"6","sortOrder":315,"queryName":"size-1800-315-6"},{"id":12272,"count":"4","label":"6H","sortOrder":317,"queryName":"size-1800-317-6h"},{"id":12273,"count":"47","label":"7","sortOrder":318,"queryName":"size-1800-318-7"},{"id":12274,"count":"50","label":"7H","sortOrder":319,"queryName":"size-1800-319-7h"},{"id":12275,"count":"7","label":"7H","sortOrder":320,"queryName":"size-1800-320-7h"},{"id":12276,"count":"57","label":"8","sortOrder":322,"queryName":"size-1800-322-8"},{"id":12277,"count":"55","label":"8H","sortOrder":323,"queryName":"size-1800-323-8h"},{"id":12278,"count":"6","label":"8H","sortOrder":324,"queryName":"size-1800-324-8h"},{"id":12279,"count":"51","label":"9","sortOrder":326,"queryName":"size-1800-326-9"},{"id":12280,"count":"57","label":"9H","sortOrder":327,"queryName":"size-1800-327-9h"},{"id":12281,"count":"5","label":"9H","sortOrder":328,"queryName":"size-1800-328-9h"},{"id":12282,"count":"54","label":"10","sortOrder":330,"queryName":"size-1800-330-10"},{"id":12283,"count":"49","label":"10H","sortOrder":331,"queryName":"size-1800-331-10h"},{"id":12284,"count":"54","label":"11","sortOrder":332,"queryName":"size-1800-332-11"},{"id":12285,"count":"57","label":"11H","sortOrder":333,"queryName":"size-1800-333-11h"},{"id":12286,"count":"55","label":"12","sortOrder":334,"queryName":"size-1800-334-12"},{"id":12287,"count":"7","label":"12H","sortOrder":335,"queryName":"size-1800-335-12h"},{"id":12288,"count":"7","label":"13","sortOrder":336,"queryName":"size-1800-336-13"},{"id":12289,"count":"41","label":"13","sortOrder":337,"queryName":"size-1800-337-13"}]},{"group":2001,"values":[{"id":12318,"count":"4","label":"ONE SIZE","sortOrder":438,"queryName":"size-2001-438-one-size"}]},{"group":9999,"values":[{"id":2209997675,"count":"5","label":"10.5","sortOrder":"ZZZ","queryName":"size-10.5"},{"id":2209997672,"count":"6","label":"11.5","sortOrder":"ZZZ","queryName":"size-11.5"}]}],"label":"Size & Fit","priority":30,"selectedCount":0},{"name":"Color","values":[{"id":232,"count":"1","label":"Red","sortOrder":"A","queryName":"color-red","hexCode":"#ff0000"},{"id":236,"count":"4","label":"Blue","sortOrder":"E","queryName":"color-blue","hexCode":"#0000ff"},{"id":241,"count":"2","label":"White","sortOrder":"H","queryName":"color-white","hexCode":"#ffffff"},{"id":242,"count":"5","label":"Black","sortOrder":"I","queryName":"color-black","hexCode":"#000000"},{"id":240,"count":"2","label":"Grey","sortOrder":"J","queryName":"color-grey","hexCode":"#808080"},{"id":239,"count":"9","label":"Brown","sortOrder":"K","queryName":"color-brown","hexCode":"#7f4f2d"},{"id":958,"count":"74","label":"Other","sortOrder":"L","queryName":"color-other","swatchKey":"swatch-other"}],"label":"Solid Color","priority":40,"selectedCount":0},{"name":"StyleOccasion","values":[{"id":2209998474,"count":"54","label":"Casual","sortOrder":"ZZZ","queryName":"occasion-casual"},{"id":2209993250,"count":"3","label":"Sport/Performance","sortOrder":"ZZZ","queryName":"occasion-sportperformance"},{"id":2209998478,"count":"8","label":"Wear to Work","sortOrder":"ZZZ","queryName":"occasion-wear-to-work"}],"label":"Occasion","priority":50,"selectedCount":0},{"name":"Price Range","values":[{"id":4,"count":"4","label":"Under $25","sortOrder":"A","queryName":"price-under-25"},{"id":4000,"count":"1","label":"$25-$50","sortOrder":"B","queryName":"price-25-50"},{"id":6,"count":"33","label":"$50-$100","sortOrder":"C","queryName":"price-50-100"},{"id":5,"count":"20","label":"$100-$150","sortOrder":"D","queryName":"price-100-150"},{"id":231,"count":"8","label":"$150-$250","sortOrder":"E","queryName":"price-150-250"},{"id":10,"count":"25","label":"$250 & over","sortOrder":"F","queryName":"price-250-over"}],"label":"Price","priority":60,"selectedCount":0},{"name":"Discount","values":[{"id":2100000010,"count":"1","label":"40% - 60% Off","sortOrder":"C","queryName":"discount-40-60-off"},{"id":2100000006,"count":"5","label":"Less Than 40% Off","sortOrder":"D","queryName":"discount-less-than-40-off"}],"label":"Discount","priority":70,"selectedCount":0},{"name":"Trending","values":[{"id":2004,"count":"10","label":"Best Seller","sortOrder":"C","queryName":"best-seller"},{"id":2005,"count":"6","label":"Top Rated","sortOrder":"D","queryName":"top-rated"},{"id":2601,"count":"6","label":"Eligible For Promotion","sortOrder":"ZZZ","queryName":"eligible-for-promotion"}],"priority":80}],"breadcrumbs":[]},"shopByList":[{"value":"view all","safeName":"view-all","name":"view all"},{"queryName":"sneakers","name":"sneakers","value":"2534374302023776","safeName":"sneakers","id":1000001075,"count":"40","gender":"men"},{"queryName":"exclusives","name":"exclusives","value":"2534374302105160","safeName":"exclusives","id":1000001076,"count":"29","gender":"men"},{"queryName":"loafersboatshoes","name":"loafers & slip ons","value":"2534374302052521","safeName":"loafers-slip-ons","id":1000001077,"count":"17","gender":"men"},{"queryName":"sandalsflipflops","name":"sandals & flip-flops","value":"2534374302023777","safeName":"sandals-flipflops","id":1000001078,"count":"6","gender":"men"},{"queryName":"oxfords","name":"dress shoes","value":"2534374302040762","safeName":"dress-shoes","id":1000001079,"count":"16","gender":"men"},{"queryName":"boots","name":"boots","value":"2534374302023775","safeName":"boots","id":1000001080,"count":"15","gender":"men"},{"queryName":"shoecare","name":"Shoe Care","value":"2534374302084871","safeName":"shoe-care","id":1000001082,"count":"4","gender":"men"}],"resultCount":91,"pagination":{"pageIndex":2,"totalPage":2},"seoProperties":{"title":"REPLACE","description":"REPLACE","canonicalUrl":"mens_category/shoes_sneakers.jsp"}}