{"sortByOrderType":[{"label":"Price: Low to High","value":"1"},{"label":"Price: High to Low","value":"2"},{"label":"Top Rated","value":"4"},{"label":"New Arrival","value":"3"}],"productList":[{"header":"","products":[{"extended-size-group-id":"50676BL81330","extendedSize":"Regular","show-all-colors":true,"styledWithSkus":"50676_BL8133,H9933_WT0002,17555_BL8133,K6213_BK0001,K9291_BK0001","apiLink":"/data/v1/US/products/full/50676/c/mens_category/sportcoatsandvests/suitingblazers","colors":[{"show-on-sale":false,"colorName":"BLACK","colorCode":"BK0001","hasOnfig":true,"show-on-full":true,"skuShotType":"_m,_d1,_d2,_d3,_d4,_d5"},{"show-on-sale":false,"colorName":"NAVY","colorCode":"BL8133","hasOnfig":true,"show-on-full":true,"skuShotType":"_m,_d1,_d2,_d3,_d4,_d5"}],"productId":"845524441815632","productDescription":"Ludlow Slim-fit shawl-collar tuxedo jacket in Italian wool","brand":"JCrew","showOnfigImage":true,"priority":99999,"listPrice":{"amount":525.00,"formatted":"$525.00"},"url":"/p/mens_category/sportcoatsandvests/suitingblazers/ludlow-slimfit-shawlcollar-tuxedo-jacket-in-italian-wool/50676","productCode":"50676","tiles":["BL8133"],"folderId":"2534374302094699","defaultColorCode":"BL8133","shotType":"_m,_d1,_d2,_d3,_d4,_d5"},{"extended-size-group-id":"28130WZ05460","extendedSize":"Regular","badgeType":"TS","show-all-colors":true,"styledWithSkus":"28130_BL7493,AA822_WX6419,AD994_MG6340,K9321_BK0001","apiLink":"/data/v1/US/products/full/28130/c/mens_category/brandswelove/suiting","colors":[{"show-on-sale":false,"colorName":"BLACK","colorCode":"BK0001","hasOnfig":true,"show-on-full":true,"skuShotType":"_m,_d1,_d2,_d3,_d4,_d5,_v"},{"show-on-sale":false,"colorName":"DEEP NAVY","colorCode":"BL7493","hasOnfig":true,"show-on-full":true,"skuShotType":"_m,_d1,_d2,_d3,_d4,_d5,_d6,_v"},{"show-on-sale":false,"colorName":"GEYSER GREY","colorCode":"GY6569","hasOnfig":true,"show-on-full":true,"skuShotType":"_m,_d1,_d2,_d3,_d4"},{"show-on-sale":false,"colorName":"CASPIAN SEA","colorCode":"WZ0546","hasOnfig":true,"show-on-full":true,"skuShotType":"_m,_d1,_d2,_d3,_d4,_d5"}],"productId":"845524441804053","productDescription":"Ludlow Slim-fit suit jacket with double vent in Italian wool","brand":"JCrew","showOnfigImage":true,"priority":99999,"listPrice":{"amount":425.00,"formatted":"$425.00"},"url":"/p/mens_category/brandswelove/suiting/ludlow-slimfit-suit-jacket-with-double-vent-in-italian-wool/28130","productCode":"28130","tiles":["WZ0546"],"folderId":"2534374302092957","badge":{"label":"best seller","type":"TS","priority":4,"iconPath":"TS"},"defaultColorCode":"BL7493","shotType":"_m,_d1,_d2,_d3,_d4,_d5,_d6,_v"},{"extended-size-group-id":"28130BK00010","extendedSize":"Regular","badgeType":"TS","show-all-colors":true,"styledWithSkus":"28130_BL7493,AA822_WX6419,AD994_MG6340,K9321_BK0001","apiLink":"/data/v1/US/products/full/28130/c/mens_category/brandswelove/suiting","colors":[{"show-on-sale":false,"colorName":"BLACK","colorCode":"BK0001","hasOnfig":true,"show-on-full":true,"skuShotType":"_m,_d1,_d2,_d3,_d4,_d5,_v"},{"show-on-sale":false,"colorName":"DEEP NAVY","colorCode":"BL7493","hasOnfig":true,"show-on-full":true,"skuShotType":"_m,_d1,_d2,_d3,_d4,_d5,_d6,_v"},{"show-on-sale":false,"colorName":"GEYSER GREY","colorCode":"GY6569","hasOnfig":true,"show-on-full":true,"skuShotType":"_m,_d1,_d2,_d3,_d4"},{"show-on-sale":false,"colorName":"CASPIAN SEA","colorCode":"WZ0546","hasOnfig":true,"show-on-full":true,"skuShotType":"_m,_d1,_d2,_d3,_d4,_d5"}],"productId":"845524441804053","productDescription":"Ludlow Slim-fit suit jacket with double vent in Italian wool","brand":"JCrew","showOnfigImage":true,"priority":99999,"listPrice":{"amount":425.00,"formatted":"$425.00"},"url":"/p/mens_category/brandswelove/suiting/ludlow-slimfit-suit-jacket-with-double-vent-in-italian-wool/28130","productCode":"28130","tiles":["BK0001"],"folderId":"2534374302092957","badge":{"label":"best seller","type":"TS","priority":4,"iconPath":"TS"},"defaultColorCode":"BL7493","shotType":"_m,_d1,_d2,_d3,_d4,_d5,_d6,_v"},{"extended-size-group-id":"28130BL74930","extendedSize":"Regular","badgeType":"TS","show-all-colors":true,"styledWithSkus":"28130_BL7493,AA822_WX6419,AD994_MG6340,K9321_BK0001","apiLink":"/data/v1/US/products/full/28130/c/mens_category/brandswelove/suiting","colors":[{"show-on-sale":false,"colorName":"BLACK","colorCode":"BK0001","hasOnfig":true,"show-on-full":true,"skuShotType":"_m,_d1,_d2,_d3,_d4,_d5,_v"},{"show-on-sale":false,"colorName":"DEEP NAVY","colorCode":"BL7493","hasOnfig":true,"show-on-full":true,"skuShotType":"_m,_d1,_d2,_d3,_d4,_d5,_d6,_v"},{"show-on-sale":false,"colorName":"GEYSER GREY","colorCode":"GY6569","hasOnfig":true,"show-on-full":true,"skuShotType":"_m,_d1,_d2,_d3,_d4"},{"show-on-sale":false,"colorName":"CASPIAN SEA","colorCode":"WZ0546","hasOnfig":true,"show-on-full":true,"skuShotType":"_m,_d1,_d2,_d3,_d4,_d5"}],"productId":"845524441804053","productDescription":"Ludlow Slim-fit suit jacket with double vent in Italian wool","brand":"JCrew","showOnfigImage":true,"priority":99999,"listPrice":{"amount":425.00,"formatted":"$425.00"},"url":"/p/mens_category/brandswelove/suiting/ludlow-slimfit-suit-jacket-with-double-vent-in-italian-wool/28130","productCode":"28130","tiles":["BL7493"],"folderId":"2534374302092957","badge":{"label":"best seller","type":"TS","priority":4,"iconPath":"TS"},"defaultColorCode":"BL7493","shotType":"_m,_d1,_d2,_d3,_d4,_d5,_d6,_v"},{"extended-size-group-id":"28130GY65690","extendedSize":"Regular","badgeType":"TS","show-all-colors":true,"styledWithSkus":"28130_BL7493,AA822_WX6419,AD994_MG6340,K9321_BK0001","apiLink":"/data/v1/US/products/full/28130/c/mens_category/brandswelove/suiting","colors":[{"show-on-sale":false,"colorName":"BLACK","colorCode":"BK0001","hasOnfig":true,"show-on-full":true,"skuShotType":"_m,_d1,_d2,_d3,_d4,_d5,_v"},{"show-on-sale":false,"colorName":"DEEP NAVY","colorCode":"BL7493","hasOnfig":true,"show-on-full":true,"skuShotType":"_m,_d1,_d2,_d3,_d4,_d5,_d6,_v"},{"show-on-sale":false,"colorName":"GEYSER GREY","colorCode":"GY6569","hasOnfig":true,"show-on-full":true,"skuShotType":"_m,_d1,_d2,_d3,_d4"},{"show-on-sale":false,"colorName":"CASPIAN SEA","colorCode":"WZ0546","hasOnfig":true,"show-on-full":true,"skuShotType":"_m,_d1,_d2,_d3,_d4,_d5"}],"productId":"845524441804053","productDescription":"Ludlow Slim-fit suit jacket with double vent in Italian wool","brand":"JCrew","showOnfigImage":true,"priority":99999,"listPrice":{"amount":425.00,"formatted":"$425.00"},"url":"/p/mens_category/brandswelove/suiting/ludlow-slimfit-suit-jacket-with-double-vent-in-italian-wool/28130","productCode":"28130","tiles":["GY6569"],"folderId":"2534374302092957","badge":{"label":"best seller","type":"TS","priority":4,"iconPath":"TS"},"defaultColorCode":"BL7493","shotType":"_m,_d1,_d2,_d3,_d4,_d5,_d6,_v"},{"extended-size-group-id":"25893BL74930","extendedSize":"Regular","show-all-colors":true,"styledWithSkus":"25893_BL7493,F4189_WU6159,26508_EC0325,E9301_WQ0022","apiLink":"/data/v1/US/products/full/25893/c/mens_category/sportcoatsandvests/suitingblazers","colors":[{"show-on-sale":false,"colorName":"DEEP NAVY","colorCode":"BL7493","hasOnfig":true,"show-on-full":true,"skuShotType":"_m,_d1,_d2,_d3,_d4"}],"productId":"845524441801369","productDescription":"Ludlow Slim-fit double-breasted jacket in Italian wool","brand":"JCrew","showOnfigImage":true,"priority":99999,"listPrice":{"amount":425.00,"formatted":"$425.00"},"url":"/p/mens_category/sportcoatsandvests/suitingblazers/ludlow-slimfit-doublebreasted-jacket-in-italian-wool/25893","productCode":"25893","tiles":["BL7493"],"folderId":"2534374302100814","badge":{"label":"only a few left","type":"INV","priority":6},"defaultColorCode":"BL7493","shotType":"_m,_d1,_d2,_d3,_d4"}]}],"navigation":{"refinements":[{"name":"Category","values":[{"id":10012,"count":"21","label":"blazers","sortOrder":0,"queryName":"sportcoatsandvests","gender":"men","value":"2534374302032648"},{"id":3100000271,"count":"9","label":"brands we love","sortOrder":1,"queryName":"brandswelove","gender":"men","value":"2534374302106960"},{"id":10002,"count":"88","label":"casual shirts","sortOrder":2,"queryName":"shirts","gender":"men","value":"2534374302023749"},{"id":10010,"count":"16","label":"coats & jackets","sortOrder":3,"queryName":"coats_and_jackets","gender":"men","value":"2534374302034766"},{"id":14640,"count":"29","label":"denim","sortOrder":4,"queryName":"denim_jeans","gender":"men","value":"2534374302079800"},{"id":12772,"count":"14","label":"dress shirts","sortOrder":5,"queryName":"dressshirts","gender":"men","value":"2534374302083564"},{"id":3100001401,"count":"45","label":"pajamas & loungewear","sortOrder":6,"queryName":"pajamas_and_loungewear","gender":"men","value":"2534374302187981"},{"id":13833,"count":"71","label":"pants & chinos","sortOrder":7,"queryName":"pants","gender":"men","value":"2534374302079640"},{"id":3100001129,"count":"16","label":"polos","sortOrder":8,"queryName":"polos","gender":"men","value":"2534374302183835"},{"id":2110000042,"count":"47","label":"shorts","sortOrder":9,"queryName":"shorts","gender":"men","value":"2534374302102793"},{"id":3100000757,"count":"75","label":"suits & tuxedos","sortOrder":10,"queryName":"suits_tuxedos","gender":"men","value":"2534374302142222"},{"id":10003,"count":"80","label":"sweaters","sortOrder":11,"queryName":"sweaters","gender":"men","value":"2534374302023742"},{"id":3100000270,"count":"73","label":"sweatshirts & sweatpants","sortOrder":12,"queryName":"sweatshirts_sweatpants","gender":"men","value":"2534374302106688"},{"id":10009,"count":"18","label":"swimwear & swim trunks","sortOrder":13,"queryName":"swim","gender":"men","value":"2534374302023768"},{"id":3100001128,"count":"91","label":"t-shirts","sortOrder":14,"queryName":"tshirts","gender":"men","value":"2534374302183834"},{"id":3100001402,"count":"29","label":"underwear & boxers","sortOrder":15,"queryName":"underwear_and_boxers","gender":"men","value":"2534374302187980"},{"id":10017,"count":"25","label":"underwear & pajamas","sortOrder":16,"queryName":"underwearpajamas","gender":"men","value":"2534374302023759"}],"priority":20,"selectedCount":0},{"name":"Size Chart","values":[{"group":10,"values":[{"id":2003,"count":"555","label":"Regular","sortOrder":"B","queryName":"size-regular"},{"id":954,"count":"76","label":"Slim","sortOrder":"C","queryName":"size-slim"},{"id":953,"count":"46","label":"Tall","sortOrder":"D","queryName":"size-tall"},{"id":2006,"count":"4","label":"Classic Untucked","sortOrder":"E","queryName":"size-classic-untucked"},{"id":2008,"count":"40","label":"Slim Untucked","sortOrder":"F","queryName":"size-slim-untucked"}]},{"group":500,"values":[{"id":11996,"count":"349","label":"X-SMALL","sortOrder":66,"queryName":"size-500-66-x-small"},{"id":11997,"count":"358","label":"SMALL","sortOrder":67,"queryName":"size-500-67-small"},{"id":11998,"count":"342","label":"MEDIUM","sortOrder":68,"queryName":"size-500-68-medium"},{"id":11999,"count":"328","label":"LARGE","sortOrder":69,"queryName":"size-500-69-large"},{"id":12000,"count":"320","label":"X-LARGE","sortOrder":70,"queryName":"size-500-70-x-large"},{"id":12001,"count":"284","label":"XX-LARGE","sortOrder":71,"queryName":"size-500-71-xx-large"},{"id":3100001280,"count":"7","label":"XXX-LARGE","sortOrder":72,"queryName":"size-500-72-xxx-large"}]},{"group":700,"values":[{"id":12015,"count":"11","label":"28","sortOrder":91,"queryName":"size-700-91-28"},{"id":12016,"count":"39","label":"29","sortOrder":92,"queryName":"size-700-92-29"},{"id":12017,"count":"37","label":"30","sortOrder":93,"queryName":"size-700-93-30"},{"id":12018,"count":"36","label":"31","sortOrder":94,"queryName":"size-700-94-31"},{"id":12019,"count":"36","label":"32","sortOrder":95,"queryName":"size-700-95-32"},{"id":12020,"count":"36","label":"33","sortOrder":96,"queryName":"size-700-96-33"},{"id":12021,"count":"38","label":"34","sortOrder":97,"queryName":"size-700-97-34"},{"id":12022,"count":"38","label":"35","sortOrder":98,"queryName":"size-700-98-35"},{"id":12023,"count":"39","label":"36","sortOrder":99,"queryName":"size-700-99-36"},{"id":12294,"count":"37","label":"38","sortOrder":101,"queryName":"size-700-101-38"},{"id":12298,"count":"44","label":"40","sortOrder":103,"queryName":"size-700-103-40"},{"id":12301,"count":"35","label":"42","sortOrder":105,"queryName":"size-700-105-42"},{"id":12320,"count":"6","label":"44","sortOrder":107,"queryName":"size-700-107-44"}]},{"group":900,"values":[{"id":13549,"count":"34","label":"34/S","sortOrder":142,"queryName":"size-900-142-34s"},{"id":13550,"count":"1","label":"34/R","sortOrder":143,"queryName":"size-900-143-34r"},{"id":12058,"count":"31","label":"36/S","sortOrder":146,"queryName":"size-900-146-36s"},{"id":12059,"count":"32","label":"36/R","sortOrder":147,"queryName":"size-900-147-36r"},{"id":12061,"count":"32","label":"38/S","sortOrder":149,"queryName":"size-900-149-38s"},{"id":12062,"count":"32","label":"38/R","sortOrder":150,"queryName":"size-900-150-38r"},{"id":12065,"count":"30","label":"39/R","sortOrder":153,"queryName":"size-900-153-39r"},{"id":12067,"count":"33","label":"40/S","sortOrder":155,"queryName":"size-900-155-40s"},{"id":12068,"count":"31","label":"40/R","sortOrder":156,"queryName":"size-900-156-40r"},{"id":12069,"count":"32","label":"40/L","sortOrder":157,"queryName":"size-900-157-40l"},{"id":12071,"count":"29","label":"41/R","sortOrder":159,"queryName":"size-900-159-41r"},{"id":12073,"count":"31","label":"42/S","sortOrder":161,"queryName":"size-900-161-42s"},{"id":12074,"count":"31","label":"42/R","sortOrder":162,"queryName":"size-900-162-42r"},{"id":12075,"count":"31","label":"42/L","sortOrder":163,"queryName":"size-900-163-42l"},{"id":12077,"count":"34","label":"44/R","sortOrder":165,"queryName":"size-900-165-44r"},{"id":12078,"count":"30","label":"44/L","sortOrder":166,"queryName":"size-900-166-44l"},{"id":12080,"count":"28","label":"46/R","sortOrder":168,"queryName":"size-900-168-46r"},{"id":12081,"count":"27","label":"46/L","sortOrder":169,"queryName":"size-900-169-46l"},{"id":12084,"count":"7","label":"48/R","sortOrder":172,"queryName":"size-900-172-48r"},{"id":12085,"count":"1","label":"48/L","sortOrder":173,"queryName":"size-900-173-48l"},{"id":3100001281,"count":"1","label":"50/R","sortOrder":174,"queryName":"size-900-174-50r"},{"id":3100001282,"count":"3","label":"50/L","sortOrder":175,"queryName":"size-900-175-50l"}]},{"group":1000,"values":[{"id":12120,"count":"54","label":"28/30","sortOrder":215,"queryName":"size-1000-215-2830"},{"id":12122,"count":"105","label":"28/32","sortOrder":217,"queryName":"size-1000-217-2832"},{"id":12128,"count":"76","label":"29/30","sortOrder":224,"queryName":"size-1000-224-2930"},{"id":12130,"count":"110","label":"29/32","sortOrder":226,"queryName":"size-1000-226-2932"},{"id":12136,"count":"120","label":"30/30","sortOrder":233,"queryName":"size-1000-233-3030"},{"id":12138,"count":"119","label":"30/32","sortOrder":235,"queryName":"size-1000-235-3032"},{"id":12140,"count":"77","label":"30/34","sortOrder":237,"queryName":"size-1000-237-3034"},{"id":12144,"count":"119","label":"31/30","sortOrder":242,"queryName":"size-1000-242-3130"},{"id":12146,"count":"120","label":"31/32","sortOrder":244,"queryName":"size-1000-244-3132"},{"id":12148,"count":"78","label":"31/34","sortOrder":246,"queryName":"size-1000-246-3134"},{"id":12151,"count":"119","label":"32/30","sortOrder":251,"queryName":"size-1000-251-3230"},{"id":12153,"count":"119","label":"32/32","sortOrder":253,"queryName":"size-1000-253-3232"},{"id":12155,"count":"118","label":"32/34","sortOrder":255,"queryName":"size-1000-255-3234"},{"id":12160,"count":"119","label":"33/30","sortOrder":260,"queryName":"size-1000-260-3330"},{"id":12162,"count":"119","label":"33/32","sortOrder":262,"queryName":"size-1000-262-3332"},{"id":12164,"count":"115","label":"33/34","sortOrder":264,"queryName":"size-1000-264-3334"},{"id":12168,"count":"118","label":"34/30","sortOrder":268,"queryName":"size-1000-268-3430"},{"id":12170,"count":"119","label":"34/32","sortOrder":270,"queryName":"size-1000-270-3432"},{"id":12172,"count":"119","label":"34/34","sortOrder":272,"queryName":"size-1000-272-3434"},{"id":12173,"count":"33","label":"34/36","sortOrder":273,"queryName":"size-1000-273-3436"},{"id":12175,"count":"18","label":"35/30","sortOrder":275,"queryName":"size-1000-275-3530"},{"id":12176,"count":"115","label":"35/32","sortOrder":276,"queryName":"size-1000-276-3532"},{"id":12178,"count":"7","label":"35/34","sortOrder":278,"queryName":"size-1000-278-3534"},{"id":12182,"count":"54","label":"36/30","sortOrder":282,"queryName":"size-1000-282-3630"},{"id":12183,"count":"120","label":"36/32","sortOrder":283,"queryName":"size-1000-283-3632"},{"id":12185,"count":"109","label":"36/34","sortOrder":285,"queryName":"size-1000-285-3634"},{"id":12188,"count":"1","label":"38/30","sortOrder":288,"queryName":"size-1000-288-3830"},{"id":12189,"count":"67","label":"38/32","sortOrder":289,"queryName":"size-1000-289-3832"},{"id":12191,"count":"20","label":"38/34","sortOrder":291,"queryName":"size-1000-291-3834"},{"id":12194,"count":"20","label":"40/30","sortOrder":294,"queryName":"size-1000-294-4030"},{"id":12196,"count":"33","label":"40/32","sortOrder":296,"queryName":"size-1000-296-4032"},{"id":12198,"count":"22","label":"40/34","sortOrder":298,"queryName":"size-1000-298-4034"},{"id":12201,"count":"22","label":"42/30","sortOrder":301,"queryName":"size-1000-301-4230"},{"id":12202,"count":"28","label":"42/32","sortOrder":302,"queryName":"size-1000-302-4232"},{"id":12204,"count":"28","label":"42/34","sortOrder":304,"queryName":"size-1000-304-4234"},{"id":3100001284,"count":"27","label":"44/32","sortOrder":308,"queryName":"size-1000-308-4432"}]},{"group":2086,"values":[{"id":12249,"count":"44","label":"TALL MEDIUM","sortOrder":419,"queryName":"size-2086-419-tall-medium"},{"id":12250,"count":"40","label":"TALL LARGE","sortOrder":420,"queryName":"size-2086-420-tall-large"},{"id":12252,"count":"35","label":"X LARGE-TALL","sortOrder":423,"queryName":"size-2086-423-x-large-tall"},{"id":12253,"count":"37","label":"XX-LARGE-TALL","sortOrder":424,"queryName":"size-2086-424-xx-large-tall"},{"id":3100001285,"count":"1","label":"XXX-LARGE-TALL","sortOrder":425,"queryName":"size-2086-425-xxx-large-tall"}]},{"group":2300,"values":[{"id":12330,"count":"8","label":"14H/32","sortOrder":446,"queryName":"size-2300-446-14h32"},{"id":12331,"count":"8","label":"14H/33","sortOrder":447,"queryName":"size-2300-447-14h33"},{"id":12332,"count":"8","label":"15/32","sortOrder":448,"queryName":"size-2300-448-1532"},{"id":12333,"count":"8","label":"15/33","sortOrder":449,"queryName":"size-2300-449-1533"},{"id":12334,"count":"8","label":"15/34","sortOrder":450,"queryName":"size-2300-450-1534"},{"id":3100001286,"count":"8","label":"15/35","sortOrder":451,"queryName":"size-2300-451-1535"},{"id":12335,"count":"9","label":"15H/32","sortOrder":452,"queryName":"size-2300-452-15h32"},{"id":12336,"count":"8","label":"15H/33","sortOrder":453,"queryName":"size-2300-453-15h33"},{"id":12337,"count":"8","label":"15H/34","sortOrder":454,"queryName":"size-2300-454-15h34"},{"id":12338,"count":"9","label":"15H/35","sortOrder":455,"queryName":"size-2300-455-15h35"},{"id":3100001287,"count":"9","label":"16/32","sortOrder":456,"queryName":"size-2300-456-1632"},{"id":12339,"count":"8","label":"16/33","sortOrder":457,"queryName":"size-2300-457-1633"},{"id":12340,"count":"8","label":"16/34","sortOrder":458,"queryName":"size-2300-458-1634"},{"id":12341,"count":"8","label":"16/35","sortOrder":459,"queryName":"size-2300-459-1635"},{"id":3100001288,"count":"8","label":"16/36","sortOrder":460,"queryName":"size-2300-460-1636"},{"id":12342,"count":"7","label":"16H/33","sortOrder":461,"queryName":"size-2300-461-16h33"},{"id":12343,"count":"7","label":"16H/34","sortOrder":462,"queryName":"size-2300-462-16h34"},{"id":12344,"count":"8","label":"16H/35","sortOrder":463,"queryName":"size-2300-463-16h35"},{"id":12345,"count":"8","label":"16H/36","sortOrder":464,"queryName":"size-2300-464-16h36"},{"id":12346,"count":"7","label":"17/34","sortOrder":465,"queryName":"size-2300-465-1734"},{"id":12347,"count":"7","label":"17/35","sortOrder":466,"queryName":"size-2300-466-1735"},{"id":12348,"count":"7","label":"17/36","sortOrder":467,"queryName":"size-2300-467-1736"},{"id":12350,"count":"7","label":"17H/35","sortOrder":469,"queryName":"size-2300-469-17h35"},{"id":12351,"count":"7","label":"17H/36","sortOrder":470,"queryName":"size-2300-470-17h36"}]}],"label":"Size & Fit","priority":150,"selectedCount":0},{"name":"Color","values":[{"id":232,"count":"22","label":"Red","sortOrder":"A","queryName":"color-red","hexCode":"#ff0000"},{"id":233,"count":"2","label":"Orange","sortOrder":"B","queryName":"color-orange","hexCode":"#ffa500"},{"id":235,"count":"33","label":"Green","sortOrder":"D","queryName":"color-green","hexCode":"#008000"},{"id":236,"count":"144","label":"Blue","sortOrder":"E","queryName":"color-blue","hexCode":"#0000ff"},{"id":237,"count":"5","label":"Purple","sortOrder":"F","queryName":"color-purple","hexCode":"#800080"},{"id":238,"count":"6","label":"Pink","sortOrder":"G","queryName":"color-pink","hexCode":"#ffc0cb"},{"id":241,"count":"34","label":"White","sortOrder":"H","queryName":"color-white","hexCode":"#ffffff"},{"id":242,"count":"53","label":"Black","sortOrder":"I","queryName":"color-black","hexCode":"#000000"},{"id":240,"count":"49","label":"Grey","sortOrder":"J","queryName":"color-grey","hexCode":"#808080"},{"id":239,"count":"15","label":"Brown","sortOrder":"K","queryName":"color-brown","hexCode":"#7f4f2d"},{"id":958,"count":"250","label":"Other","sortOrder":"L","queryName":"color-other","swatchKey":"swatch-other"},{"id":955,"count":"30","label":"Denim","sortOrder":"M","queryName":"color-denim","swatchKey":"swatch-denim"},{"id":957,"count":"36","label":"Natural","sortOrder":"N","queryName":"color-natural","hexCode":"#f6eee2"}],"priority":160,"selectedCount":0},{"name":"Pattern","values":[{"id":3214,"count":"34","label":"Stripes","sortOrder":"A","queryName":"pattern-stripes"},{"id":3215,"count":"11","label":"Floral","sortOrder":"B","queryName":"pattern-floral"},{"id":3211,"count":"14","label":"Gingham","sortOrder":"D","queryName":"pattern-gingham"},{"id":3212,"count":"19","label":"Plaid","sortOrder":"E","queryName":"pattern-plaid"},{"id":3213,"count":"6","label":"Polka dot","sortOrder":"F","queryName":"pattern-polka-dot"},{"id":3217,"count":"8","label":"Graphic","sortOrder":"G","queryName":"pattern-graphic"},{"id":3219,"count":"1","label":"Camo","sortOrder":"I","queryName":"pattern-camo"},{"id":3216,"count":"28","label":"Other Prints","sortOrder":"J","queryName":"pattern-other-prints"}],"priority":180,"selectedCount":0},{"name":"Price Range","values":[{"id":4,"count":"38","label":"Under $25","sortOrder":"A","queryName":"price-under-25"},{"id":4000,"count":"90","label":"$25-$50","sortOrder":"B","queryName":"price-25-50"},{"id":6,"count":"343","label":"$50-$100","sortOrder":"C","queryName":"price-50-100"},{"id":5,"count":"57","label":"$100-$150","sortOrder":"D","queryName":"price-100-150"},{"id":231,"count":"46","label":"$150-$250","sortOrder":"E","queryName":"price-150-250"},{"id":10,"count":"34","label":"$250 & over","sortOrder":"F","queryName":"price-250-over"}],"label":"Price","priority":200,"selectedCount":0},{"name":"Trending","values":[{"id":2401,"count":"3","label":"New -  Last 2 Weeks","sortOrder":"A","queryName":"new-last-2-weeks"},{"id":2402,"count":"85","label":"New -  Last 4 Weeks","sortOrder":"B","queryName":"new-last-4-weeks"},{"id":2004,"count":"165","label":"Best Seller","sortOrder":"C","queryName":"best-seller"},{"id":2005,"count":"28","label":"Top Rated","sortOrder":"D","queryName":"top-rated"},{"id":2007,"count":"52","label":"Monogrammable","sortOrder":"E","queryName":"monogrammable"},{"id":2601,"count":"395","label":"Eligible For Promotion","sortOrder":"ZZZ","queryName":"eligible-for-promotion"}],"priority":230},{"name":"JCrewBrand","values":[{"id":2209996297,"count":"46","label":"LUDLOW","sortOrder":"ZZZ","queryName":"brand-ludlow"}],"label":"Brand","priority":250,"selectedCount":0},{"name":"Eco","values":[{"id":3301,"count":"306","label":"Sustainable","sortOrder":"A","queryName":"sustainable_clothing"},{"id":3302,"count":"6","label":"Fair Trade","sortOrder":"B","queryName":"fair_trade_clothing"},{"id":3303,"count":"23","label":"Organic","sortOrder":"C","queryName":"organic_clothing"},{"id":3304,"count":"6","label":"Recycled","sortOrder":"D","queryName":"recycled_clothing"}],"label":"Re-Imagined","priority":260,"selectedCount":0},{"name":"Discount","values":[{"id":2110000036,"count":"2","label":"70% And Above","sortOrder":"A","queryName":"discount-70-and-above"},{"id":2100000011,"count":"11","label":"60% - 70% Off","sortOrder":"B","queryName":"discount-60-70-off"},{"id":2100000010,"count":"5","label":"40% - 60% Off","sortOrder":"C","queryName":"discount-40-60-off"},{"id":2100000006,"count":"21","label":"Less Than 40% Off","sortOrder":"D","queryName":"discount-less-than-40-off"}],"label":"Discount","priority":280,"selectedCount":0}],"breadcrumbs":[]},"resultCount":606,"pagination":{"pageIndex":6,"totalPage":6}}